{
  "entry": {
    "main": [
      "./scripts/main.js",
      "./styles/main.scss"
    ],
    "customizer": [
      "./scripts/customizer.js"
    ],
    "login": [
      "./styles/login.scss"
    ]
  },
  "publicPath": "/app/themes/kernl-wp",
  "devUrl": "https://kernl-bedrock.test",
  "proxyUrl": "http://localhost:3000",
  "cacheBusting": "[name]_[hash:8]",
  "watch": [
    "app/**/*.php",
    "config/**/*.php",
    "resources/views/**/*.php"
  ]
}
